C:\code\year3\DatabaseProject\DatabaseProject\src\main\java\com\mycompany\databaseproject\DeleteDatabase.java
C:\code\year3\DatabaseProject\DatabaseProject\src\main\java\com\mycompany\databaseproject\InsertDatabase.java
C:\code\year3\DatabaseProject\DatabaseProject\src\main\java\com\mycompany\databaseproject\dao\UserDao.java
C:\code\year3\DatabaseProject\DatabaseProject\src\main\java\com\mycompany\databaseproject\UpdateDatabase.java
C:\code\year3\DatabaseProject\DatabaseProject\src\main\java\com\mycompany\databaseproject\helper\DatabaseHelper.java
C:\code\year3\DatabaseProject\DatabaseProject\src\main\java\com\mycompany\databaseproject\SelectDatabase.java
C:\code\year3\DatabaseProject\DatabaseProject\src\main\java\com\mycompany\databaseproject\TestUserDao.java
C:\code\year3\DatabaseProject\DatabaseProject\src\main\java\com\mycompany\databaseproject\ConnectDatabase.java
C:\code\year3\DatabaseProject\DatabaseProject\src\main\java\com\mycompany\databaseproject\dao\Dao.java
C:\code\year3\DatabaseProject\DatabaseProject\src\main\java\com\mycompany\databaseproject\model\User.java
